<svg width="10" height="10" viewBox="0 0 10 10" fill="none" xmlns="http://www.w3.org/2000/svg">
<path d="M8.84016 4.04001H5.96016V1.16001C5.96016 0.629852 5.53032 0.200012 5.00016 0.200012C4.47 0.200012 4.04016 0.629852 4.04016 1.16001V4.04001H1.16016C0.630005 4.04001 0.200165 4.46985 0.200165 5.00001C0.200165 5.53017 0.630005 5.96001 1.16016 5.96001H4.04016V8.84001C4.04016 9.37017 4.47 9.80001 5.00016 9.80001C5.53032 9.80001 5.96016 9.37017 5.96016 8.84001V5.96001H8.84016C9.37032 5.96001 9.80016 5.53017 9.80016 5.00001C9.80016 4.46985 9.37032 4.04001 8.84016 4.04001Z" fill="#EB5A1E"/>
</svg>
